<svg version="1.1" xmlns="http://www.w3.org/2000/svg" xmlns:xlink="http://www.w3.org/1999/xlink" x="0px" y="0px"
	 viewBox="0 0 20 20" style="enable-background:new 0 0 20 20;" xml:space="preserve">
<g fill="none" stroke="currentColor">
	<polyline points="11.8,12.1 11.8,13.6 5.8,13.6 3.8,15.8 3.8,13.6 2,13.6 2,7.6 7,7.6 "/>
	<polygon points="18,4.9 8.1,4.9 8.1,10.9 14.1,10.9 16.2,13.1 16.2,10.9 18,10.9 "/>
</g>
</svg>
