<svg version="1.1" xmlns="http://www.w3.org/2000/svg" xmlns:xlink="http://www.w3.org/1999/xlink" x="0px" y="0px"
	 viewBox="0 0 20 20" style="enable-background:new 0 0 20 20;" xml:space="preserve">
	 <g>
			<circle fill="currentColor" cx="4.3" cy="16.1" r="2.4"/>
			<g stroke-width="2"  fill="none" stroke="currentColor" >
				<path d="M2.3,8.3c5.4,0,9.7,4.4,9.7,9.7"/>
				<path d="M2.3,2.7c8.4,0,15.3,6.8,15.3,15.3"/>
	 		</g>
	 </g>
</svg>
